Lab 13 - Creating a detailed report with explanations from the NEON MAG dat
…
2. MAG Richness per Site (How many genomes per site?)

NEON <- read_csv("NEON_soilMAGs_soilChem2.csv") |> janitor::clean_names()

richness <- NEON |>
  group_by(site_id) |>
  summarise(
    mag_richness = n_distinct(bin_id),
    latitude = mean(decimal_latitude, na.rm = TRUE),
    longitude = mean(decimal_longitude, na.rm = TRUE)
  )

richness

# A tibble: 28 × 4
   site_id mag_richness latitude longitude
   <chr>          <int>    <dbl>     <dbl>
 1 BONA             256     65.2    -148. 
 2 CLBJ             276     33.4     -97.6
 3 CPER             122     40.8    -105. 
 4 DCFS             258     47.2     -99.1
 5 DEJU             474     63.9    -146. 
 6 DSNY             116     28.1     -81.4
 7 GUAN             154     18.0     -66.9
 8 HARV             253     42.5     -72.2
 9 KONZ             208     39.1     -96.6
10 LENO             167     31.8     -88.2
# ℹ 18 more rows
…
richness

# A tibble: 27 × 4
   site_id mag_richness latitude longitude
   <chr>          <int>    <dbl>     <dbl>
 1 BONA             256     65.2    -148. 
 2 CLBJ             276     33.4     -97.6
 3 CPER             122     40.8    -105. 
 4 DCFS             258     47.2     -99.1
 5 DEJU             474     63.9    -146. 
 6 DSNY             116     28.1     -81.4
 7 GUAN             154     18.0     -66.9
 8 HARV             253     42.5     -72.2
 9 KONZ             208     39.1     -96.6
10 LENO             167     31.8     -88.2
# ℹ 17 more rows
…
richness_env

# A tibble: 27 × 8
   site_id mag_richness mean_pH mean_temp mean_moist mean_elev latitude
   <chr>          <int>   <dbl>     <dbl>      <dbl>     <dbl>    <dbl>
 1 BONA             256    4.07      8.20     2.30       434.      65.2
 2 CLBJ             276    5.14     22.1      0.138      282.      33.4
 3 CPER             122    6.90     24.8      0.0736    1645.      40.8
 4 DCFS             258    6.52     19.2      0.316      561.      47.2
 5 DEJU             474    4.82      6.74     0.517      522.      63.9
 6 DSNY             116    4.49     25.6      0.227       19.3     28.1
 7 GUAN             154    7.73     28.4      0.481      135.      18.0
 8 HARV             253    3.75     16.7      2.66       274.      42.5
 9 KONZ             208    6.79     25.0      0.195      404.      39.1
10 LENO             167    5.08     25.1      0.396       11.7     31.8
# ℹ 17 more rows
# ℹ 1 more variable: longitude <dbl>
…
